{
  "database": {
    "rules": "database.rules.json"
  },
  "hosting": {
    "site": "workout-f8969",
    "public": "dist/workout-app",
    "ignore": ["firebase.json", "**/.*", "**/node_modules/**"],
    "rewrites": [
      {
        "source": "**",
        "destination": "/index.html"
      }
    ]
  }
}
